[gd_scene load_steps=3 format=3 uid="uid://ctmi7nm2iq6qu"]

[ext_resource type="Texture2D" uid="uid://b0j536myw5m5r" path="res://charas.png" id="1_veq6o"]
[ext_resource type="Script" path="res://spore.gd" id="2_7cyaq"]

[node name="Spore" type="Sprite2D"]
texture = ExtResource("1_veq6o")
hframes = 8
vframes = 8
frame = 9
script = ExtResource("2_7cyaq")
