[gd_scene load_steps=6 format=3 uid="uid://cbvak2k6mafyo"]

[ext_resource type="TileSet" uid="uid://btmh1l7kof8o7" path="res://BareMouseField.tres" id="1_jy56p"]
[ext_resource type="PackedScene" uid="uid://t8ufkqq4t2bb" path="res://barrel.tscn" id="2_fq5he"]
[ext_resource type="PackedScene" uid="uid://cgapnstopgepk" path="res://home.tscn" id="3_fsk2x"]
[ext_resource type="PackedScene" uid="uid://rscvhkdxllxi" path="res://mashl.tscn" id="4_0gylk"]
[ext_resource type="PackedScene" uid="uid://dgsbow3ivdkb7" path="res://player.tscn" id="5_ibcg4"]

[node name="Stage3" type="Node2D"]
editor_description = "Stage3"

[node name="TileMap" type="TileMap" parent="."]
tile_set = ExtResource("1_jy56p")
format = 2
layer_0/tile_data = PackedInt32Array(0, 65536, 0, 65536, 65536, 0, 131072, 65536, 0, 196608, 65536, 0, 262144, 65536, 0, 327680, 65536, 0, 393216, 65536, 0, 458752, 65536, 0, 524288, 65536, 0, 589824, 65536, 0, 655360, 65536, 0, 1, 65536, 0, 2, 65536, 0, 3, 65536, 0, 4, 65536, 0, 5, 65536, 0, 6, 65536, 0, 8, 65536, 0, 7, 65536, 0, 9, 65536, 0, 10, 65536, 0, 11, 65536, 0, 12, 65536, 0, 13, 65536, 0, 14, 65536, 0, 15, 65536, 0, 65551, 65536, 0, 131087, 65536, 0, 196623, 65536, 0, 262159, 65536, 0, 262158, 0, 0, 327694, 65536, 0, 393230, 0, 0, 393231, 65536, 0, 327695, 65536, 0, 458767, 65536, 0, 524303, 65536, 0, 589839, 65536, 0, 655375, 65536, 0, 655374, 65536, 0, 655373, 65536, 0, 655372, 65536, 0, 655371, 65536, 0, 655370, 65536, 0, 655369, 65536, 0, 655368, 65536, 0, 655367, 65536, 0, 655366, 65536, 0, 655365, 65536, 0, 655364, 65536, 0, 655363, 65536, 0, 655362, 65536, 0, 655361, 65536, 0, 327681, 0, 0, 393217, 0, 0, 458753, 0, 0, 524289, 0, 0, 589825, 0, 0, 524290, 65536, 0, 524291, 65536, 0, 524292, 65536, 0, 524293, 65536, 0, 589829, 0, 0, 589828, 0, 0, 589827, 0, 0, 458754, 65536, 0, 589826, 0, 0, 393218, 65536, 0, 327682, 65536, 0, 262146, 65536, 0, 196610, 65536, 0, 196609, 0, 0, 131073, 0, 0, 65537, 0, 0, 262145, 0, 0, 131074, 131072, 0, 65538, 0, 0, 65539, 0, 0, 65540, 0, 0, 65541, 0, 0, 65542, 0, 0, 65543, 0, 0, 65544, 0, 0, 65545, 131072, 0, 65546, 0, 0, 65547, 0, 0, 131083, 65536, 0, 131084, 0, 0, 131085, 0, 0, 65549, 0, 0, 65548, 0, 0, 65550, 0, 0, 131086, 0, 0, 196622, 0, 0, 458766, 0, 0, 524302, 0, 0, 524301, 0, 0, 589837, 0, 0, 589838, 0, 0, 589836, 0, 0, 589835, 0, 0, 589834, 0, 0, 589833, 65536, 0, 589832, 0, 0, 589831, 0, 0, 589830, 0, 0, 524294, 0, 0, 524295, 65536, 0, 524296, 0, 0, 524297, 65536, 0, 524298, 0, 0, 524299, 0, 0, 524300, 0, 0, 458765, 0, 0, 393229, 0, 0, 327693, 65536, 0, 262157, 0, 0, 196620, 0, 0, 131082, 0, 0, 131081, 131072, 0, 131080, 131072, 0, 131079, 131072, 0, 131075, 196608, 0, 131076, 131072, 0, 131077, 131072, 0, 131078, 131072, 0, 196615, 65536, 0, 196616, 0, 0, 196621, 0, 0, 196619, 65536, 0, 196618, 0, 0, 196617, 65536, 0, 196614, 0, 0, 196613, 0, 0, 196612, 0, 0, 196611, 0, 0, 262147, 0, 0, 327683, 0, 0, 393219, 65536, 0, 458756, 0, 0, 458757, 0, 0, 458758, 0, 0, 458759, 65536, 0, 458760, 0, 0, 393225, 0, 0, 393226, 0, 0, 393227, 0, 0, 393228, 0, 0, 327692, 65536, 0, 262156, 0, 0, 262152, 0, 0, 262151, 65536, 0, 458755, 0, 0, 393220, 65536, 0, 327684, 0, 0, 262148, 65536, 0, 262149, 65536, 0, 327685, 0, 0, 327686, 0, 0, 327687, 65536, 0, 262150, 65536, 0, 393221, 65536, 0, 393222, 0, 0, 393223, 65536, 0, 393224, 0, 0, 327688, 0, 0, 327689, 65536, 0, 262153, 65536, 0, 262154, 0, 0, 262155, 65536, 0, 327691, 65536, 0, 327690, 0, 0, 458761, 65536, 0, 458762, 0, 0, 458763, 0, 0, 458764, 0, 0)

[node name="Barrel" parent="TileMap" instance=ExtResource("2_fq5he")]
position = Vector2(48, 272)

[node name="Barrel2" parent="TileMap" instance=ExtResource("2_fq5he")]
position = Vector2(368, 48)

[node name="Barrel3" parent="TileMap" instance=ExtResource("2_fq5he")]
position = Vector2(272, 272)

[node name="Home" parent="TileMap" instance=ExtResource("3_fsk2x")]
position = Vector2(432, 272)

[node name="Mashl" parent="TileMap" instance=ExtResource("4_0gylk")]
position = Vector2(464, 48)

[node name="Mashl2" parent="TileMap" instance=ExtResource("4_0gylk")]
position = Vector2(464, 80)

[node name="Mashl3" parent="TileMap" instance=ExtResource("4_0gylk")]
position = Vector2(432, 48)

[node name="Player" parent="TileMap" instance=ExtResource("5_ibcg4")]
position = Vector2(48, 48)
